10
0.000000 0.000 0.000 1.000 0.000 1.040 0.000 0.387 0.000 -0.362 0.036 1.113 0.363 -0.958 0.286 -0.687 -0.970 -0.918 -0.265 -1.046 1.334 
0.005000 0.000 0.000 1.000 0.032 1.039 0.039 0.384 0.050 -0.363 -0.017 1.103 0.391 -0.967 0.256 -0.664 -0.986 -0.908 -0.296 -1.065 1.319 
0.010000 0.000 0.000 0.998 0.063 1.035 0.077 0.374 0.099 -0.357 -0.069 1.093 0.418 -0.974 0.225 -0.639 -1.002 -0.898 -0.326 -1.084 1.303 
0.015000 0.000 0.000 0.996 0.095 1.028 0.115 0.358 0.146 -0.344 -0.119 1.083 0.445 -0.981 0.194 -0.615 -1.018 -0.886 -0.357 -1.102 1.288 
0.020000 0.000 0.000 0.992 0.126 1.018 0.151 0.335 0.191 -0.323 -0.168 1.071 0.472 -0.987 0.163 -0.590 -1.032 -0.874 -0.387 -1.121 1.272 
0.025000 0.000 0.000 0.988 0.157 1.006 0.186 0.307 0.232 -0.296 -0.213 1.059 0.499 -0.992 0.131 -0.564 -1.047 -0.860 -0.416 -1.139 1.256 
0.030000 0.000 0.000 0.982 0.189 0.992 0.218 0.274 0.270 -0.263 -0.253 1.046 0.525 -0.995 0.100 -0.539 -1.060 -0.846 -0.445 -1.157 1.239 
0.035000 0.000 0.000 0.976 0.220 0.975 0.247 0.235 0.302 -0.224 -0.288 1.033 0.551 -0.998 0.068 -0.513 -1.073 -0.830 -0.473 -1.175 1.223 
0.040000 0.000 0.000 0.968 0.250 0.958 0.272 0.193 0.330 -0.181 -0.318 1.019 0.576 -1.000 0.037 -0.486 -1.085 -0.814 -0.501 -1.192 1.206 
0.045000 0.000 0.000 0.960 0.281 0.943 0.292 0.147 0.351 -0.135 -0.341 1.004 0.601 -1.001 0.005 -0.460 -1.097 -0.796 -0.529 -1.209 1.188 
0.050000 0.000 0.000 0.951 0.311 0.931 0.309 0.099 0.366 -0.085 -0.357 0.989 0.626 -1.000 -0.026 -0.433 -1.108 -0.778 -0.555 -1.226 1.171 
0.055000 0.000 0.000 0.941 0.341 0.926 0.326 0.049 0.375 -0.034 -0.366 0.973 0.650 -0.999 -0.058 -0.406 -1.118 -0.759 -0.581 -1.243 1.153 
0.060000 0.000 0.000 0.930 0.370 0.925 0.347 -0.002 0.377 0.018 -0.368 0.956 0.674 -0.997 -0.090 -0.378 -1.128 -0.739 -0.607 -1.259 1.135 
0.065000 0.000 0.000 0.917 0.400 0.924 0.373 -0.053 0.371 0.069 -0.362 0.939 0.698 -0.994 -0.121 -0.351 -1.137 -0.718 -0.632 -1.275 1.117 
0.070000 0.000 0.000 0.905 0.429 0.921 0.403 -0.104 0.359 0.119 -0.350 0.921 0.721 -0.989 -0.152 -0.323 -1.145 -0.697 -0.656 -1.291 1.099 
0.075000 0.000 0.000 0.891 0.457 0.916 0.435 -0.152 0.340 0.167 -0.330 0.903 0.743 -0.984 -0.184 -0.295 -1.153 -0.674 -0.679 -1.307 1.080 
0.080000 0.000 0.000 0.876 0.485 0.907 0.468 -0.197 0.315 0.212 -0.304 0.884 0.765 -0.978 -0.215 -0.267 -1.160 -0.651 -0.702 -1.322 1.061 
0.085000 0.000 0.000 0.860 0.512 0.896 0.502 -0.238 0.283 0.252 -0.272 0.865 0.786 -0.971 -0.245 -0.238 -1.166 -0.627 -0.723 -1.337 1.042 
0.090000 0.000 0.000 0.844 0.539 0.882 0.536 -0.275 0.246 0.288 -0.235 0.845 0.807 -0.963 -0.276 -0.210 -1.172 -0.602 -0.744 -1.352 1.023 
0.095000 0.001 0.000 0.827 0.566 0.866 0.569 -0.306 0.204 0.318 -0.194 0.824 0.828 -0.954 -0.306 -0.181 -1.176 -0.577 -0.764 -1.367 1.004 
0.100000 0.001 0.000 0.808 0.592 0.846 0.602 -0.331 0.158 0.342 -0.148 0.803 0.848 -0.944 -0.336 -0.152 -1.181 -0.551 -0.783 -1.381 0.984 
0.105000 0.001 0.000 0.790 0.617 0.824 0.634 -0.350 0.109 0.359 -0.100 0.782 0.867 -0.933 -0.366 -0.124 -1.184 -0.524 -0.802 -1.395 0.964 
0.110000 0.001 0.000 0.770 0.641 0.800 0.665 -0.361 0.058 0.369 -0.050 0.760 0.886 -0.921 -0.395 -0.095 -1.187 -0.497 -0.819 -1.409 0.944 
0.115000 0.001 0.000 0.749 0.665 0.773 0.694 -0.366 0.005 0.373 0.002 0.737 0.904 -0.909 -0.424 -0.066 -1.189 -0.469 -0.836 -1.422 0.924 
0.120000 0.001 0.000 0.728 0.689 0.744 0.720 -0.363 -0.047 0.369 0.053 0.714 0.921 -0.895 -0.453 -0.037 -1.191 -0.441 -0.851 -1.436 0.904 
0.125000 0.001 0.000 0.706 0.712 0.713 0.743 -0.352 -0.099 0.358 0.103 0.691 0.938 -0.881 -0.481 -0.008 -1.191 -0.412 -0.866 -1.448 0.883 
0.130000 0.001 0.000 0.684 0.734 0.681 0.763 -0.335 -0.148 0.340 0.151 0.667 0.954 -0.865 -0.508 0.021 -1.191 -0.383 -0.880 -1.461 0.862 
0.135000 0.001 0.000 0.661 0.755 0.649 0.779 -0.311 -0.195 0.316 0.196 0.643 0.970 -0.849 -0.535 0.050 -1.191 -0.353 -0.892 -1.473 0.841 
0.140000 0.001 0.000 0.637 0.775 0.618 0.791 -0.280 -0.238 0.285 0.238 0.618 0.984 -0.832 -0.562 0.079 -1.189 -0.323 -0.904 -1.485 0.820 
0.145000 0.001 0.000 0.612 0.795 0.590 0.799 -0.244 -0.276 0.250 0.275 0.593 0.999 -0.815 -0.588 0.108 -1.187 -0.293 -0.915 -1.497 0.799 
0.150000 0.001 0.000 0.587 0.814 0.568 0.805 -0.204 -0.308 0.209 0.306 0.568 1.012 -0.796 -0.613 0.137 -1.184 -0.262 -0.924 -1.508 0.777 
0.155000 0.001 0.000 0.561 0.832 0.550 0.813 -0.159 -0.335 0.164 0.332 0.542 1.025 -0.777 -0.638 0.165 -1.181 -0.231 -0.933 -1.519 0.756 
0.160000 0.001 0.000 0.535 0.850 0.535 0.825 -0.111 -0.355 0.116 0.351 0.516 1.037 -0.756 -0.662 0.194 -1.177 -0.200 -0.940 -1.530 0.734 
0.165000 0.001 0.001 0.508 0.866 0.519 0.841 -0.061 -0.369 0.066 0.363 0.490 1.048 -0.736 -0.686 0.223 -1.172 -0.168 -0.947 -1.541 0.712 
0.170000 0.002 0.001 0.481 0.882 0.502 0.859 -0.010 -0.375 0.014 0.368 0.463 1.058 -0.714 -0.709 0.251 -1.167 -0.137 -0.952 -1.551 0.690 
0.175000 0.002 0.001 0.453 0.897 0.481 0.879 0.041 -0.375 -0.038 0.365 0.436 1.068 -0.692 -0.731 0.279 -1.160 -0.105 -0.957 -1.561 0.668 
0.180000 0.002 0.001 0.425 0.911 0.458 0.900 0.092 -0.367 -0.089 0.356 0.409 1.077 -0.669 -0.753 0.308 -1.154 -0.073 -0.960 -1.570 0.645 
0.185000 0.002 0.001 0.396 0.924 0.433 0.920 0.141 -0.353 -0.138 0.339 0.382 1.085 -0.645 -0.774 0.335 -1.146 -0.041 -0.962 -1.579 0.623 
0.190000 0.002 0.001 0.367 0.936 0.404 0.940 0.187 -0.333 -0.184 0.315 0.354 1.092 -0.621 -0.794 0.363 -1.138 -0.008 -0.964 -1.588 0.600 
0.195000 0.002 0.001 0.338 0.947 0.374 0.959 0.230 -0.306 -0.227 0.285 0.326 1.099 -0.596 -0.813 0.391 -1.129 0.024 -0.964 -1.597 0.578 
0.200000 0.002 0.001 0.308 0.957 0.341 0.976 0.270 -0.274 -0.265 0.249 0.298 1.104 -0.571 -0.831 0.418 -1.119 0.056 -0.963 -1.605 0.555 
0.205000 0.002 0.001 0.278 0.967 0.305 0.991 0.304 -0.238 -0.297 0.208 0.269 1.109 -0.545 -0.849 0.445 -1.109 0.088 -0.961 -1.613 0.532 
0.210000 0.002 0.001 0.248 0.975 0.268 1.004 0.333 -0.197 -0.324 0.163 0.241 1.113 -0.518 -0.866 0.472 -1.098 0.120 -0.958 -1.620 0.509 
0.215000 0.002 0.001 0.218 0.983 0.229 1.014 0.357 -0.152 -0.343 0.115 0.212 1.116 -0.491 -0.882 0.498 -1.087 0.152 -0.954 -1.628 0.486 
0.220000 0.002 0.001 0.187 0.989 0.190 1.021 0.374 -0.106 -0.356 0.064 0.184 1.118 -0.464 -0.897 0.525 -1.075 0.183 -0.949 -1.634 0.462 
0.225000 0.003 0.001 0.156 0.995 0.149 1.024 0.385 -0.057 -0.361 0.012 0.155 1.119 -0.436 -0.911 0.551 -1.062 0.215 -0.942 -1.641 0.439 
0.230000 0.003 0.001 0.125 0.999 0.110 1.022 0.390 -0.007 -0.359 -0.040 0.126 1.119 -0.408 -0.925 0.576 -1.049 0.246 -0.935 -1.647 0.416 
0.235000 0.003 0.001 0.094 1.003 0.072 1.017 0.388 0.043 -0.349 -0.092 0.096 1.118 -0.379 -0.938 0.602 -1.035 0.277 -0.927 -1.653 0.392 
0.240000 0.003 0.002 0.063 1.006 0.039 1.008 0.379 0.092 -0.332 -0.141 0.067 1.116 -0.350 -0.949 0.627 -1.020 0.308 -0.918 -1.659 0.368 
0.245000 0.003 0.002 0.031 1.007 0.010 0.997 0.364 0.140 -0.308 -0.188 0.038 1.114 -0.320 -0.960 0.651 -1.005 0.338 -0.907 -1.664 0.345 
0.250000 0.003 0.002 -0.000 1.008 -0.014 0.988 0.343 0.185 -0.278 -0.231 0.009 1.110 -0.291 -0.970 0.675 -0.989 0.368 -0.896 -1.669 0.321 
0.255000 0.003 0.002 -0.031 1.008 -0.035 0.982 0.316 0.227 -0.242 -0.269 -0.020 1.105 -0.261 -0.979 0.699 -0.973 0.398 -0.884 -1.674 0.297 
0.260000 0.003 0.002 -0.063 1.006 -0.055 0.980 0.283 0.265 -0.201 -0.301 -0.050 1.098 -0.231 -0.987 0.723 -0.956 0.427 -0.871 -1.678 0.273 
0.265000 0.003 0.002 -0.094 1.004 -0.076 0.980 0.246 0.299 -0.156 -0.327 -0.079 1.091 -0.200 -0.994 0.746 -0.939 0.455 -0.857 -1.682 0.250 
0.270000 0.003 0.002 -0.125 1.001 -0.099 0.981 0.204 0.327 -0.108 -0.347 -0.108 1.082 -0.169 -1.000 0.768 -0.921 0.484 -0.841 -1.685 0.226 
0.275000 0.003 0.002 -0.156 0.997 -0.124 0.984 0.159 0.350 -0.058 -0.360 -0.138 1.073 -0.139 -1.005 0.790 -0.903 0.511 -0.825 -1.688 0.202 
0.280000 0.004 0.002 -0.187 0.992 -0.152 0.986 0.111 0.366 -0.006 -0.365 -0.167 1.061 -0.108 -1.010 0.812 -0.884 0.538 -0.809 -1.691 0.178 
0.285000 0.004 0.002 -0.218 0.986 -0.181 0.988 0.061 0.376 0.046 -0.363 -0.196 1.049 -0.077 -1.013 0.833 -0.864 0.565 -0.791 -1.694 0.153 
0.290000 0.004 0.003 -0.248 0.978 -0.213 0.989 0.010 0.379 0.097 -0.354 -0.226 1.035 -0.046 -1.015 0.854 -0.844 0.591 -0.772 -1.696 0.129 
0.295000 0.004 0.003 -0.278 0.970 -0.246 0.988 -0.041 0.375 0.146 -0.338 -0.255 1.019 -0.014 -1.017 0.874 -0.824 0.616 -0.753 -1.698 0.105 
0.300000 0.004 0.003 -0.308 0.962 -0.281 0.985 -0.091 0.364 0.193 -0.315 -0.285 1.002 0.017 -1.017 0.894 -0.803 0.641 -0.732 -1.699 0.081 
0.305000 0.004 0.003 -0.338 0.952 -0.318 0.979 -0.140 0.347 0.235 -0.286 -0.315 0.982 0.048 -1.017 0.913 -0.781 0.665 -0.711 -1.701 0.057 
0.310000 0.004 0.003 -0.367 0.941 -0.356 0.971 -0.186 0.322 0.273 -0.252 -0.346 0.960 0.079 -1.015 0.932 -0.759 0.688 -0.690 -1.701 0.033 
0.315000 0.004 0.003 -0.396 0.929 -0.394 0.959 -0.228 0.292 0.306 -0.212 -0.380 0.934 0.110 -1.013 0.950 -0.737 0.711 -0.667 -1.702 0.009 
0.320000 0.004 0.003 -0.425 0.917 -0.432 0.943 -0.265 0.256 0.334 -0.168 -0.427 0.909 0.141 -1.009 0.968 -0.714 0.732 -0.644 -1.702 -0.016 
0.325000 0.004 0.003 -0.453 0.903 -0.469 0.923 -0.297 0.215 0.354 -0.121 -0.472 0.908 0.172 -1.005 0.985 -0.691 0.753 -0.620 -1.702 -0.040 
0.330000 0.004 0.004 -0.480 0.889 -0.503 0.898 -0.324 0.170 0.368 -0.072 -0.506 0.905 0.203 -1.000 1.002 -0.668 0.774 -0.595 -1.701 -0.064 
0.335000 0.005 0.004 -0.508 0.874 -0.531 0.871 -0.343 0.121 0.375 -0.021 -0.538 0.900 0.233 -0.994 1.018 -0.644 0.793 -0.570 -1.701 -0.088 
0.340000 0.005 0.004 -0.534 0.858 -0.554 0.844 -0.356 0.070 0.375 0.031 -0.567 0.893 0.263 -0.987 1.033 -0.619 0.811 -0.544 -1.699 -0.112 
0.345000 0.005 0.004 -0.561 0.841 -0.572 0.818 -0.362 0.018 0.368 0.082 -0.595 0.885 0.293 -0.979 1.048 -0.595 0.829 -0.517 -1.698 -0.136 
0.350000 0.005 0.004 -0.586 0.823 -0.588 0.796 -0.360 -0.034 0.354 0.131 -0.622 0.875 0.323 -0.970 1.062 -0.570 0.846 -0.490 -1.696 -0.161 
0.355000 0.005 0.004 -0.611 0.805 -0.602 0.777 -0.351 -0.086 0.333 0.178 -0.648 0.863 0.353 -0.960 1.076 -0.545 0.862 -0.463 -1.694 -0.185 
0.360000 0.005 0.004 -0.636 0.785 -0.617 0.760 -0.335 -0.136 0.306 0.222 -0.674 0.851 0.382 -0.949 1.089 -0.519 0.877 -0.435 -1.691 -0.209 
0.365000 0.005 0.005 -0.660 0.765 -0.633 0.745 -0.312 -0.183 0.272 0.261 -0.698 0.837 0.411 -0.938 1.101 -0.493 0.891 -0.406 -1.688 -0.233 
0.370000 0.005 0.005 -0.683 0.745 -0.651 0.731 -0.282 -0.226 0.234 0.295 -0.722 0.822 0.439 -0.925 1.113 -0.467 0.904 -0.377 -1.685 -0.256 
0.375000 0.005 0.005 -0.706 0.723 -0.670 0.717 -0.248 -0.265 0.191 0.324 -0.745 0.807 0.467 -0.912 1.124 -0.440 0.916 -0.348 -1.681 -0.280 
0.380000 0.005 0.005 -0.728 0.701 -0.690 0.702 -0.208 -0.299 0.145 0.347 -0.767 0.790 0.495 -0.898 1.135 -0.414 0.927 -0.318 -1.677 -0.304 
0.385000 0.005 0.005 -0.749 0.679 -0.712 0.687 -0.164 -0.326 0.095 0.362 -0.788 0.772 0.522 -0.883 1.145 -0.387 0.937 -0.288 -1.673 -0.328 
0.390000 0.005 0.005 -0.769 0.655 -0.736 0.671 -0.117 -0.347 0.044 0.371 -0.809 0.754 0.549 -0.867 1.154 -0.359 0.946 -0.257 -1.669 -0.352 
0.395000 0.005 0.006 -0.789 0.631 -0.760 0.653 -0.067 -0.362 -0.007 0.373 -0.829 0.735 0.575 -0.850 1.162 -0.332 0.955 -0.227 -1.664 -0.375 
0.400000 0.005 0.006 -0.808 0.607 -0.785 0.633 -0.016 -0.370 -0.059 0.367 -0.849 0.715 0.601 -0.833 1.170 -0.305 0.962 -0.196 -1.658 -0.399 
0.405000 0.005 0.006 -0.826 0.581 -0.812 0.611 0.035 -0.370 -0.109 0.353 -0.868 0.694 0.626 -0.815 1.178 -0.277 0.968 -0.165 -1.653 -0.422 
0.410000 0.006 0.006 -0.844 0.556 -0.838 0.586 0.086 -0.364 -0.157 0.333 -0.886 0.673 0.650 -0.796 1.184 -0.249 0.973 -0.133 -1.647 -0.446 
0.415000 0.006 0.006 -0.860 0.529 -0.865 0.557 0.135 -0.351 -0.202 0.307 -0.903 0.651 0.674 -0.777 1.190 -0.221 0.977 -0.102 -1.641 -0.469 
0.420000 0.006 0.006 -0.876 0.503 -0.890 0.523 0.182 -0.331 -0.242 0.274 -0.920 0.629 0.698 -0.756 1.195 -0.193 0.980 -0.070 -1.634 -0.492 
0.425000 0.006 0.007 -0.891 0.475 -0.911 0.485 0.226 -0.306 -0.278 0.235 -0.936 0.605 0.720 -0.735 1.200 -0.164 0.982 -0.038 -1.627 -0.515 
0.430000 0.006 0.007 -0.905 0.448 -0.927 0.445 0.266 -0.275 -0.307 0.192 -0.951 0.582 0.743 -0.714 1.204 -0.136 0.983 -0.007 -1.620 -0.538 
0.435000 0.006 0.007 -0.918 0.419 -0.935 0.404 0.301 -0.239 -0.331 0.145 -0.965 0.557 0.764 -0.691 1.207 -0.107 0.983 0.025 -1.613 -0.561 
0.440000 0.006 0.007 -0.931 0.391 -0.938 0.368 0.331 -0.198 -0.347 0.096 -0.979 0.533 0.785 -0.668 1.210 -0.079 0.982 0.057 -1.605 -0.584 
0.445000 0.006 0.007 -0.942 0.362 -0.939 0.335 0.356 -0.155 -0.356 0.044 -0.992 0.507 0.805 -0.645 1.212 -0.050 0.980 0.088 -1.597 -0.606 
0.450000 0.006 0.008 -0.953 0.333 -0.939 0.306 0.374 -0.108 -0.357 -0.008 -1.004 0.481 0.824 -0.621 1.213 -0.022 0.977 0.120 -1.588 -0.629 
0.455000 0.006 0.008 -0.962 0.303 -0.940 0.280 0.387 -0.059 -0.352 -0.060 -1.016 0.455 0.843 -0.596 1.213 0.007 0.973 0.152 -1.579 -0.651 
0.460000 0.006 0.008 -0.971 0.274 -0.941 0.255 0.392 -0.010 -0.338 -0.110 -1.027 0.429 0.861 -0.571 1.213 0.036 0.968 0.183 -1.570 -0.673 
0.465000 0.006 0.008 -0.979 0.243 -0.944 0.232 0.391 0.040 -0.318 -0.159 -1.036 0.401 0.878 -0.545 1.212 0.064 0.962 0.214 -1.561 -0.696 
0.470000 0.006 0.008 -0.986 0.213 -0.948 0.209 0.384 0.090 -0.291 -0.203 -1.046 0.374 0.894 -0.519 1.211 0.093 0.954 0.245 -1.551 -0.718 
0.475000 0.006 0.008 -0.991 0.183 -0.953 0.186 0.370 0.138 -0.258 -0.244 -1.054 0.346 0.909 -0.492 1.209 0.121 0.946 0.276 -1.541 -0.739 
0.480000 0.006 0.009 -0.996 0.152 -0.958 0.162 0.350 0.184 -0.220 -0.279 -1.062 0.318 0.924 -0.465 1.206 0.150 0.937 0.306 -1.531 -0.761 
0.485000 0.006 0.009 -1.000 0.121 -0.965 0.138 0.323 0.227 -0.177 -0.308 -1.068 0.289 0.938 -0.437 1.202 0.178 0.927 0.336 -1.520 -0.783 
0.490000 0.006 0.009 -1.003 0.090 -0.972 0.113 0.292 0.266 -0.130 -0.331 -1.074 0.261 0.951 -0.409 1.198 0.207 0.916 0.366 -1.509 -0.804 
0.495000 0.006 0.009 -1.005 0.059 -0.980 0.087 0.255 0.301 -0.081 -0.348 -1.079 0.232 0.963 -0.381 1.193 0.235 0.903 0.395 -1.498 -0.825 
0.500000 0.006 0.009 -1.006 0.028 -0.988 0.059 0.214 0.330 -0.030 -0.357 -1.084 0.202 0.974 -0.352 1.187 0.263 0.890 0.424 -1.487 -0.846 
0.505000 0.006 0.010 -1.007 -0.003 -0.997 0.029 0.169 0.354 0.022 -0.358 -1.087 0.173 0.985 -0.323 1.181 0.291 0.876 0.452 -1.475 -0.867 
0.510000 0.006 0.010 -1.006 -0.034 -1.005 -0.003 0.122 0.372 0.073 -0.353 -1.090 0.143 0.994 -0.293 1.174 0.319 0.861 0.481 -1.463 -0.888 
0.515000 0.006 0.010 -1.004 -0.065 -1.012 -0.039 0.072 0.383 0.123 -0.340 -1.092 0.113 1.003 -0.264 1.167 0.346 0.845 0.508 -1.450 -0.908 
0.520000 0.006 0.010 -1.001 -0.096 -1.017 -0.079 0.021 0.387 0.171 -0.321 -1.093 0.084 1.011 -0.234 1.159 0.374 0.829 0.535 -1.438 -0.929 
0.525000 0.006 0.010 -0.997 -0.126 -1.017 -0.122 -0.030 0.384 0.216 -0.295 -1.093 0.053 1.018 -0.204 1.150 0.401 0.811 0.561 -1.425 -0.949 
0.530000 0.006 0.011 -0.993 -0.157 -1.010 -0.166 -0.081 0.375 0.256 -0.263 -1.092 0.023 1.024 -0.174 1.140 0.428 0.792 0.587 -1.411 -0.969 
0.535000 0.006 0.011 -0.987 -0.188 -0.995 -0.207 -0.130 0.358 0.292 -0.226 -1.090 -0.007 1.029 -0.143 1.130 0.455 0.773 0.613 -1.398 -0.989 
0.540000 0.006 0.011 -0.980 -0.218 -0.977 -0.242 -0.176 0.335 0.322 -0.184 -1.088 -0.037 1.033 -0.112 1.119 0.481 0.753 0.637 -1.384 -1.008 
0.545000 0.006 0.011 -0.973 -0.248 -0.958 -0.272 -0.219 0.306 0.346 -0.139 -1.085 -0.068 1.036 -0.082 1.108 0.507 0.732 0.661 -1.370 -1.028 
0.550000 0.006 0.011 -0.964 -0.278 -0.940 -0.298 -0.257 0.271 0.363 -0.090 -1.081 -0.098 1.038 -0.051 1.096 0.533 0.710 0.684 -1.356 -1.047 
0.555000 0.006 0.011 -0.955 -0.308 -0.924 -0.322 -0.291 0.231 0.374 -0.040 -1.076 -0.128 1.040 -0.020 1.084 0.559 0.688 0.707 -1.341 -1.066 
0.560000 0.006 0.012 -0.945 -0.337 -0.909 -0.344 -0.318 0.186 0.377 0.012 -1.070 -0.159 1.040 0.011 1.070 0.584 0.664 0.728 -1.326 -1.085 
0.565000 0.006 0.012 -0.933 -0.366 -0.895 -0.366 -0.339 0.138 0.374 0.063 -1.063 -0.189 1.040 0.042 1.056 0.609 0.640 0.749 -1.311 -1.103 
0.570000 0.006 0.012 -0.921 -0.394 -0.882 -0.387 -0.353 0.088 0.363 0.113 -1.055 -0.219 1.038 0.073 1.042 0.634 0.616 0.770 -1.296 -1.121 
0.575000 0.006 0.012 -0.908 -0.423 -0.871 -0.408 -0.360 0.036 0.345 0.162 -1.047 -0.249 1.036 0.103 1.027 0.658 0.591 0.789 -1.280 -1.140 
0.580000 0.006 0.012 -0.894 -0.450 -0.860 -0.430 -0.360 -0.017 0.321 0.207 -1.037 -0.279 1.032 0.134 1.012 0.682 0.565 0.808 -1.264 -1.157 
0.585000 0.006 0.013 -0.879 -0.478 -0.849 -0.451 -0.352 -0.069 0.291 0.249 -1.027 -0.308 1.028 0.165 0.995 0.706 0.538 0.825 -1.248 -1.175 
0.590000 0.006 0.013 -0.864 -0.505 -0.839 -0.474 -0.337 -0.119 0.255 0.286 -1.016 -0.337 1.023 0.195 0.979 0.729 0.511 0.842 -1.232 -1.193 
0.595000 0.006 0.013 -0.847 -0.531 -0.830 -0.497 -0.315 -0.167 0.214 0.318 -1.004 -0.367 1.017 0.225 0.962 0.752 0.483 0.858 -1.215 -1.210 
0.600000 0.005 0.013 -0.830 -0.557 -0.820 -0.522 -0.287 -0.211 0.169 0.344 -0.992 -0.396 1.010 0.256 0.944 0.774 0.455 0.873 -1.199 -1.227 
0.605000 0.005 0.013 -0.812 -0.582 -0.810 -0.548 -0.253 -0.250 0.121 0.363 -0.978 -0.424 1.002 0.285 0.926 0.796 0.427 0.887 -1.182 -1.243 
0.610000 0.005 0.013 -0.793 -0.607 -0.800 -0.576 -0.215 -0.285 0.070 0.375 -0.964 -0.452 0.994 0.315 0.907 0.818 0.397 0.900 -1.164 -1.260 
0.615000 0.005 0.014 -0.774 -0.631 -0.788 -0.607 -0.171 -0.313 0.019 0.381 -0.949 -0.480 0.984 0.344 0.887 0.839 0.368 0.912 -1.147 -1.276 
0.620000 0.005 0.014 -0.753 -0.655 -0.773 -0.641 -0.125 -0.336 -0.033 0.378 -0.933 -0.508 0.974 0.374 0.868 0.860 0.338 0.923 -1.129 -1.292 
0.625000 0.005 0.014 -0.732 -0.677 -0.753 -0.676 -0.076 -0.352 -0.085 0.369 -0.916 -0.535 0.962 0.402 0.847 0.880 0.308 0.933 -1.111 -1.308 
0.630000 0.005 0.014 -0.711 -0.700 -0.726 -0.712 -0.025 -0.360 -0.134 0.352 -0.898 -0.562 0.950 0.431 0.827 0.899 0.277 0.943 -1.093 -1.323 
0.635000 0.005 0.014 -0.688 -0.721 -0.692 -0.741 0.026 -0.362 -0.181 0.329 -0.880 -0.589 0.937 0.459 0.805 0.919 0.246 0.951 -1.075 -1.338 
0.640000 0.005 0.014 -0.665 -0.742 -0.656 -0.764 0.077 -0.357 -0.223 0.299 -0.861 -0.614 0.923 0.486 0.784 0.937 0.215 0.958 -1.056 -1.353 
0.645000 0.005 0.015 -0.641 -0.762 -0.621 -0.781 0.126 -0.345 -0.261 0.263 -0.841 -0.640 0.908 0.514 0.762 0.955 0.183 0.964 -1.037 -1.368 
0.650000 0.005 0.015 -0.617 -0.782 -0.589 -0.794 0.174 -0.327 -0.294 0.223 -0.820 -0.665 0.893 0.540 0.739 0.973 0.152 0.969 -1.018 -1.382 
0.655000 0.005 0.015 -0.592 -0.800 -0.558 -0.805 0.218 -0.303 -0.321 0.178 -0.799 -0.689 0.876 0.567 0.716 0.990 0.120 0.973 -0.999 -1.396 
0.660000 0.005 0.015 -0.566 -0.818 -0.530 -0.815 0.258 -0.273 -0.341 0.129 -0.777 -0.713 0.859 0.592 0.693 1.007 0.088 0.976 -0.980 -1.410 
0.665000 0.005 0.015 -0.540 -0.835 -0.504 -0.825 0.294 -0.238 -0.354 0.079 -0.755 -0.736 0.841 0.618 0.669 1.023 0.056 0.978 -0.960 -1.424 
0.670000 0.005 0.015 -0.513 -0.851 -0.478 -0.834 0.325 -0.198 -0.359 0.027 -0.731 -0.759 0.823 0.642 0.645 1.038 0.024 0.979 -0.940 -1.437 
0.675000 0.004 0.015 -0.486 -0.867 -0.455 -0.843 0.351 -0.155 -0.357 -0.026 -0.707 -0.781 0.803 0.667 0.620 1.053 -0.008 0.978 -0.920 -1.450 
0.680000 0.004 0.016 -0.459 -0.881 -0.432 -0.852 0.370 -0.109 -0.348 -0.077 -0.683 -0.803 0.783 0.690 0.596 1.067 -0.040 0.977 -0.900 -1.463 
0.685000 0.004 0.016 -0.431 -0.895 -0.410 -0.861 0.384 -0.061 -0.331 -0.127 -0.657 -0.824 0.762 0.713 0.570 1.081 -0.072 0.974 -0.880 -1.475 
0.690000 0.004 0.016 -0.402 -0.908 -0.388 -0.872 0.390 -0.011 -0.307 -0.173 -0.632 -0.844 0.741 0.735 0.545 1.094 -0.104 0.971 -0.859 -1.487 
0.695000 0.004 0.016 -0.373 -0.919 -0.367 -0.883 0.390 0.039 -0.278 -0.216 -0.605 -0.863 0.718 0.757 0.519 1.106 -0.136 0.966 -0.839 -1.499 
0.700000 0.004 0.016 -0.344 -0.930 -0.346 -0.895 0.384 0.089 -0.242 -0.254 -0.578 -0.882 0.696 0.778 0.493 1.118 -0.167 0.961 -0.818 -1.511 
0.705000 0.004 0.016 -0.315 -0.940 -0.324 -0.909 0.371 0.137 -0.201 -0.286 -0.551 -0.900 0.672 0.798 0.467 1.129 -0.199 0.954 -0.797 -1.522 
0.710000 0.004 0.016 -0.285 -0.950 -0.301 -0.924 0.352 0.183 -0.157 -0.313 -0.523 -0.918 0.648 0.818 0.440 1.139 -0.230 0.946 -0.776 -1.533 
0.715000 0.004 0.016 -0.255 -0.958 -0.276 -0.941 0.327 0.227 -0.109 -0.333 -0.495 -0.934 0.623 0.837 0.413 1.149 -0.261 0.938 -0.754 -1.544 
0.720000 0.004 0.017 -0.224 -0.965 -0.248 -0.959 0.296 0.266 -0.058 -0.346 -0.466 -0.950 0.598 0.855 0.386 1.159 -0.292 0.928 -0.733 -1.554 
0.725000 0.004 0.017 -0.193 -0.971 -0.214 -0.977 0.260 0.302 -0.007 -0.351 -0.437 -0.965 0.572 0.872 0.359 1.167 -0.322 0.917 -0.711 -1.564 
0.730000 0.003 0.017 -0.163 -0.977 -0.175 -0.993 0.219 0.332 0.045 -0.349 -0.407 -0.979 0.546 0.889 0.331 1.175 -0.352 0.905 -0.690 -1.574 
0.735000 0.003 0.017 -0.132 -0.981 -0.132 -1.003 0.175 0.357 0.096 -0.341 -0.377 -0.993 0.519 0.905 0.304 1.183 -0.382 0.892 -0.668 -1.583 
0.740000 0.003 0.017 -0.101 -0.985 -0.088 -1.005 0.128 0.376 0.145 -0.325 -0.346 -1.006 0.492 0.920 0.276 1.189 -0.411 0.879 -0.646 -1.593 
0.745000 0.003 0.017 -0.069 -0.987 -0.047 -1.002 0.078 0.388 0.191 -0.302 -0.316 -1.018 0.464 0.934 0.248 1.195 -0.440 0.864 -0.624 -1.601 
0.750000 0.003 0.017 -0.038 -0.988 -0.009 -0.996 0.027 0.393 0.234 -0.273 -0.285 -1.029 0.436 0.947 0.220 1.200 -0.468 0.848 -0.602 -1.610 
0.755000 0.003 0.017 -0.007 -0.989 0.026 -0.988 -0.024 0.392 0.272 -0.239 -0.253 -1.039 0.407 0.959 0.191 1.205 -0.495 0.831 -0.579 -1.618 
0.760000 0.003 0.017 0.025 -0.989 0.059 -0.979 -0.075 0.383 0.305 -0.199 -0.222 -1.048 0.379 0.971 0.163 1.209 -0.522 0.814 -0.557 -1.626 
0.765000 0.003 0.017 0.056 -0.987 0.088 -0.970 -0.124 0.368 0.332 -0.156 -0.190 -1.057 0.349 0.982 0.134 1.212 -0.549 0.795 -0.534 -1.634 
0.770000 0.003 0.018 0.087 -0.985 0.116 -0.961 -0.171 0.346 0.353 -0.109 -0.158 -1.065 0.320 0.991 0.106 1.215 -0.575 0.776 -0.512 -1.641 
0.775000 0.003 0.018 0.118 -0.981 0.142 -0.952 -0.215 0.318 0.367 -0.059 -0.126 -1.072 0.290 1.000 0.077 1.217 -0.600 0.755 -0.489 -1.648 
0.780000 0.003 0.018 0.149 -0.977 0.167 -0.943 -0.254 0.283 0.374 -0.008 -0.094 -1.078 0.260 1.008 0.049 1.218 -0.624 0.734 -0.466 -1.655 
0.785000 0.002 0.018 0.180 -0.971 0.191 -0.936 -0.289 0.244 0.374 0.043 -0.061 -1.083 0.229 1.015 0.020 1.219 -0.648 0.712 -0.443 -1.661 
0.790000 0.002 0.018 0.211 -0.965 0.214 -0.929 -0.317 0.200 0.366 0.094 -0.029 -1.088 0.199 1.021 -0.009 1.218 -0.671 0.689 -0.420 -1.667 
0.795000 0.002 0.018 0.242 -0.958 0.236 -0.924 -0.340 0.152 0.352 0.143 0.003 -1.091 0.168 1.027 -0.038 1.218 -0.693 0.666 -0.397 -1.673 
0.800000 0.002 0.018 0.272 -0.950 0.258 -0.920 -0.355 0.102 0.331 0.190 0.036 -1.094 0.137 1.031 -0.066 1.216 -0.715 0.641 -0.374 -1.678 
0.805000 0.002 0.018 0.302 -0.941 0.282 -0.917 -0.363 0.050 0.304 0.234 0.069 -1.096 0.106 1.034 -0.095 1.214 -0.735 0.616 -0.350 -1.683 
0.810000 0.002 0.018 0.332 -0.930 0.307 -0.916 -0.364 -0.002 0.271 0.273 0.101 -1.097 0.075 1.037 -0.123 1.211 -0.755 0.591 -0.327 -1.688 
0.815000 0.002 0.018 0.361 -0.919 0.335 -0.916 -0.358 -0.054 0.232 0.308 0.134 -1.098 0.044 1.038 -0.152 1.207 -0.774 0.564 -0.304 -1.692 
0.820000 0.002 0.018 0.390 -0.907 0.367 -0.915 -0.344 -0.105 0.189 0.336 0.166 -1.097 0.012 1.039 -0.180 1.203 -0.792 0.537 -0.280 -1.696 
0.825000 0.002 0.018 0.419 -0.895 0.404 -0.912 -0.324 -0.153 0.143 0.359 0.198 -1.096 -0.019 1.038 -0.209 1.198 -0.809 0.510 -0.257 -1.700 
0.830000 0.002 0.018 0.447 -0.881 0.443 -0.904 -0.297 -0.198 0.093 0.375 0.230 -1.094 -0.050 1.037 -0.237 1.193 -0.825 0.481 -0.233 -1.704 
0.835000 0.002 0.018 0.475 -0.866 0.483 -0.889 -0.264 -0.239 0.042 0.384 0.263 -1.091 -0.081 1.034 -0.265 1.186 -0.840 0.453 -0.209 -1.707 
0.840000 0.001 0.018 0.502 -0.851 0.521 -0.869 -0.226 -0.274 -0.010 0.385 0.295 -1.088 -0.112 1.031 -0.293 1.179 -0.854 0.424 -0.186 -1.709 
0.845000 0.001 0.019 0.529 -0.834 0.556 -0.846 -0.183 -0.304 -0.062 0.379 0.326 -1.084 -0.143 1.027 -0.321 1.172 -0.868 0.394 -0.162 -1.712 
0.850000 0.001 0.019 0.556 -0.817 0.587 -0.820 -0.137 -0.328 -0.112 0.366 0.358 -1.079 -0.174 1.021 -0.348 1.163 -0.880 0.364 -0.138 -1.714 
0.855000 0.001 0.019 0.581 -0.799 0.615 -0.793 -0.088 -0.345 -0.160 0.346 0.389 -1.073 -0.205 1.015 -0.375 1.154 -0.891 0.333 -0.115 -1.716 
0.860000 0.001 0.019 0.607 -0.780 0.639 -0.766 -0.038 -0.355 -0.205 0.319 0.420 -1.066 -0.235 1.008 -0.403 1.145 -0.901 0.302 -0.091 -1.717 
0.865000 0.001 0.019 0.631 -0.761 0.660 -0.739 0.013 -0.358 -0.246 0.286 0.451 -1.059 -0.266 1.000 -0.429 1.134 -0.910 0.271 -0.067 -1.718 
0.870000 0.001 0.019 0.655 -0.740 0.680 -0.712 0.064 -0.354 -0.282 0.248 0.482 -1.051 -0.296 0.991 -0.456 1.123 -0.918 0.239 -0.043 -1.719 
0.875000 0.001 0.019 0.679 -0.719 0.697 -0.687 0.114 -0.344 -0.312 0.205 0.512 -1.043 -0.326 0.981 -0.482 1.112 -0.925 0.208 -0.019 -1.720 
0.880000 0.001 0.019 0.702 -0.697 0.712 -0.663 0.161 -0.327 -0.335 0.158 0.542 -1.033 -0.355 0.971 -0.509 1.100 -0.931 0.175 0.004 -1.720 
0.885000 0.001 0.019 0.724 -0.675 0.726 -0.640 0.206 -0.303 -0.351 0.108 0.572 -1.024 -0.384 0.959 -0.534 1.087 -0.935 0.143 0.028 -1.720 
0.890000 0.001 0.019 0.745 -0.652 0.739 -0.619 0.248 -0.274 -0.361 0.057 0.601 -1.013 -0.413 0.946 -0.560 1.073 -0.939 0.111 0.052 -1.719 
0.895000 0.001 0.019 0.766 -0.628 0.751 -0.600 0.285 -0.240 -0.363 0.004 0.630 -1.002 -0.441 0.933 -0.585 1.059 -0.941 0.078 0.076 -1.718 
0.900000 0.001 0.019 0.785 -0.603 0.765 -0.583 0.316 -0.201 -0.357 -0.048 0.659 -0.990 -0.469 0.919 -0.610 1.045 -0.943 0.046 0.100 -1.717 
0.905000 0.001 0.019 0.804 -0.578 0.780 -0.568 0.343 -0.159 -0.344 -0.099 0.687 -0.978 -0.497 0.903 -0.634 1.029 -0.943 0.013 0.124 -1.715 
0.910000 0.001 0.019 0.823 -0.552 0.798 -0.553 0.364 -0.113 -0.324 -0.147 0.715 -0.965 -0.524 0.887 -0.658 1.013 -0.942 -0.019 0.147 -1.714 
0.915000 0.000 0.019 0.840 -0.526 0.819 -0.538 0.378 -0.065 -0.297 -0.192 0.743 -0.952 -0.550 0.871 -0.682 0.997 -0.940 -0.052 0.171 -1.711 
0.920000 0.000 0.019 0.857 -0.499 0.845 -0.520 0.386 -0.016 -0.264 -0.233 0.770 -0.938 -0.576 0.853 -0.705 0.980 -0.937 -0.084 0.195 -1.709 
0.925000 0.000 0.019 0.873 -0.472 0.871 -0.496 0.387 0.034 -0.226 -0.268 0.797 -0.923 -0.602 0.835 -0.728 0.962 -0.933 -0.117 0.218 -1.706 
0.930000 0.000 0.019 0.888 -0.444 0.898 -0.468 0.382 0.083 -0.183 -0.298 0.823 -0.908 -0.627 0.815 -0.751 0.944 -0.927 -0.149 0.242 -1.703 
0.935000 0.000 0.019 0.902 -0.416 0.922 -0.435 0.370 0.132 -0.137 -0.321 0.849 -0.893 -0.651 0.795 -0.773 0.926 -0.921 -0.181 0.266 -1.700 
0.940000 0.000 0.019 0.915 -0.387 0.942 -0.400 0.352 0.178 -0.088 -0.338 0.874 -0.877 -0.674 0.775 -0.794 0.906 -0.914 -0.212 0.289 -1.696 
0.945000 0.000 0.019 0.927 -0.358 0.959 -0.362 0.328 0.222 -0.037 -0.347 0.899 -0.860 -0.697 0.753 -0.815 0.887 -0.905 -0.244 0.313 -1.692 
0.950000 0.000 0.019 0.938 -0.328 0.972 -0.324 0.298 0.262 0.015 -0.349 0.924 -0.843 -0.720 0.731 -0.836 0.866 -0.895 -0.275 0.336 -1.687 
0.955000 0.000 0.019 0.949 -0.298 0.982 -0.286 0.263 0.299 0.067 -0.344 0.948 -0.826 -0.742 0.708 -0.856 0.846 -0.885 -0.306 0.359 -1.682 
0.960000 0.000 0.019 0.958 -0.268 0.989 -0.248 0.224 0.330 0.117 -0.332 0.972 -0.808 -0.762 0.685 -0.876 0.824 -0.873 -0.336 0.383 -1.677 
0.965000 0.000 0.019 0.967 -0.238 0.993 -0.211 0.180 0.355 0.165 -0.312 0.995 -0.790 -0.783 0.661 -0.895 0.803 -0.860 -0.366 0.406 -1.672 
0.970000 0.000 0.019 0.974 -0.207 0.994 -0.176 0.134 0.375 0.209 -0.287 1.018 -0.771 -0.802 0.636 -0.913 0.781 -0.846 -0.396 0.429 -1.666 
0.975000 0.000 0.019 0.981 -0.176 0.993 -0.142 0.085 0.389 0.250 -0.255 1.040 -0.752 -0.821 0.611 -0.932 0.758 -0.831 -0.425 0.452 -1.660 
0.980000 0.000 0.019 0.987 -0.145 0.991 -0.110 0.034 0.395 0.285 -0.218 1.062 -0.733 -0.839 0.585 -0.949 0.735 -0.816 -0.453 0.475 -1.654 
0.985000 0.000 0.019 0.991 -0.114 0.987 -0.081 -0.017 0.395 0.316 -0.177 1.083 -0.713 -0.856 0.559 -0.966 0.711 -0.799 -0.481 0.498 -1.647 
0.990000 0.000 0.019 0.995 -0.082 0.983 -0.054 -0.068 0.388 0.340 -0.131 1.104 -0.693 -0.872 0.532 -0.982 0.688 -0.781 -0.509 0.521 -1.640 
0.995000 0.000 0.019 0.998 -0.051 0.979 -0.030 -0.118 0.373 0.357 -0.083 1.124 -0.673 -0.888 0.504 -0.998 0.663 -0.763 -0.535 0.543 -1.633 
