> Data Serie #000
 0.34  9.89 -4.72  2.30
 0.41  9.70 -5.16  2.27
-0.22 10.05 -5.02  2.13
-0.14 10.01 -4.55  2.42
 0.14 10.22 -5.36  2.11
-0.48  9.74 -5.36  2.30
-0.34  9.90 -5.37  1.61
 0.50  9.72 -4.99  2.34
 0.11  9.80 -4.86  2.02
-0.01 10.47 -5.21  2.27
> Data Serie #001
 0.03 10.27 -5.10  2.39
-0.22  9.85 -4.69  2.42
-0.43 10.45 -4.97  1.59
-0.31 10.16 -4.61  1.85
-0.44  9.52 -5.04  1.56
-0.26 10.47 -4.60  2.35
-0.23 10.04 -5.12  2.26
 0.01 10.17 -4.97  1.54
-0.06 10.43 -4.57  2.22
-0.22 10.24 -4.86  1.85
 0.19  9.67 -5.06  2.38
 0.33  9.83 -5.27  2.39
-0.15 10.19 -4.54  2.09
 0.16 10.36 -5.06  2.42
-0.10 10.31 -4.82  2.41
-0.02  9.72 -4.55  2.42
-0.35 10.38 -4.86  1.93
 0.12  9.78 -4.71  1.81
-0.05  9.73 -5.31  1.78
 0.06  9.92 -5.33  2.41
> Data Serie #002
-0.40  9.63 -5.00  2.26
 0.48 10.44 -4.82  1.88
 0.25  9.87 -5.21  1.73
 0.08  9.74 -5.35  2.23
-0.37 10.29 -5.34  2.25
-0.43 10.45 -5.45  2.02
-0.32  9.74 -4.70  2.23
 0.16 10.47 -4.86  2.26
-0.41  9.63 -4.98  1.58
-0.43  9.70 -5.04  2.32
 0.07 10.26 -5.45  1.66
 0.50  9.70 -4.61  1.63
 0.50  9.55 -4.63  1.57
-0.50 10.42 -4.91  1.68
-0.34  9.89 -4.59  2.32
-0.14 10.05 -4.92  1.95
 0.19  9.60 -4.97  2.26
-0.20 10.49 -4.92  2.38
 0.25 10.13 -5.46  2.25
 0.33 10.43 -4.63  2.33
 0.48 10.24 -4.60  2.48
 0.17 10.00 -5.34  2.33
 0.39  9.58 -4.85  1.75
 0.13  9.73 -4.80  1.82
-0.17  9.73 -5.43  2.13
-0.28 10.15 -4.99  2.47
-0.22 10.05 -4.78  1.61
-0.03 10.09 -4.56  1.95
-0.16 10.35 -5.07  1.50
-0.16 10.10 -4.67  1.73
> Data Serie #003
 0.18  9.98 -5.02  1.80
 0.21  9.68 -4.88  1.54
-0.09 10.20 -4.83  2.14
-0.15  9.68 -4.89  2.13
 0.23  9.83 -4.76  1.70
 0.42 10.18 -4.85  1.76
 0.03  9.59 -5.24  2.38
 0.19  9.59 -5.39  1.86
 0.08 10.09 -4.83  1.79
 0.28  9.79 -5.17  1.69
 0.48  9.50 -4.67  1.83
-0.31  9.94 -4.54  2.42
 0.26 10.20 -5.38  2.19
-0.12 10.27 -4.56  2.42
 0.36  9.70 -4.71  2.05
-0.20 10.40 -4.59  2.37
-0.00 10.08 -5.34  1.77
 0.36  9.99 -5.04  2.35
-0.00  9.79 -5.32  2.18
 0.23  9.64 -4.90  1.99
 0.34 10.22 -5.32  1.72
-0.00  9.62 -5.36  1.86
-0.18 10.43 -4.59  2.12
 0.34 10.32 -5.00  1.83
-0.11 10.16 -4.89  1.76
-0.35  9.57 -5.39  2.15
-0.14  9.79 -5.17  1.59
-0.07 10.43 -4.92  1.77
 0.16 10.26 -5.01  1.66
 0.38 10.13 -4.98  1.71
 0.06  9.93 -4.67  1.89
-0.26  9.83 -4.77  2.14
 0.48  9.84 -4.60  1.64
-0.09  9.51 -4.72  2.27
-0.21  9.61 -4.63  2.22
-0.45  9.95 -4.51  2.21
-0.29  9.97 -4.63  1.59
-0.40  9.88 -5.20  2.16
 0.31  9.63 -5.45  1.55
-0.04 10.28 -4.81  1.94
> Data Serie #004
-0.38 10.09 -4.92  2.03
 0.10  9.86 -5.20  2.39
-0.02  9.67 -4.89  2.03
 0.12 10.10 -5.27  2.33
-0.43  9.60 -4.58  1.67
-0.02  9.73 -4.67  1.79
-0.14 10.38 -5.16  2.31
 0.16  9.54 -5.24  2.28
 0.13 10.34 -5.19  1.72
-0.30 10.11 -5.39  2.17
 0.28 10.22 -5.30  1.90
-0.18  9.93 -5.27  1.89
 0.03  9.65 -4.94  1.51
-0.12  9.88 -5.19  2.24
-0.24 10.15 -4.95  2.42
 0.19 10.31 -4.80  1.81
 0.15  9.51 -4.97  2.34
 0.12 10.14 -4.98  1.90
-0.14 10.22 -4.70  2.18
-0.35  9.53 -5.44  2.19
-0.31 10.12 -4.80  2.07
-0.50  9.51 -5.19  1.76
 0.16 10.36 -5.32  1.84
 0.17 10.38 -4.85  1.81
 0.39  9.69 -5.34  2.00
 0.33 10.18 -4.60  1.69
-0.11 10.21 -4.63  2.05
 0.24 10.43 -5.27  2.43
 0.05 10.43 -5.01  2.05
 0.44 10.30 -4.69  2.09
 0.16 10.50 -4.56  1.82
 0.37 10.09 -4.86  2.26
 0.28 10.29 -5.24  2.10
-0.03  9.67 -4.70  2.37
 0.37 10.16 -5.09  2.11
 0.10 10.15 -4.96  1.65
 0.08  9.53 -4.80  2.02
 0.33 10.02 -5.39  1.99
 0.01  9.55 -4.69  1.88
 0.14  9.95 -5.36  1.91
-0.25  9.91 -5.48  2.22
 0.07 10.31 -4.92  1.95
-0.02 10.50 -5.44  1.57
 0.14 10.10 -5.28  1.72
 0.13 10.42 -4.76  1.96
-0.06 10.35 -4.55  2.45
 0.40 10.27 -5.17  2.04
-0.28  9.98 -4.55  1.97
 0.38 10.47 -5.32  1.96
 0.28 10.27 -4.60  1.76
> Data Serie #005
 0.26 10.46 -5.17  1.90
 0.06 10.05 -4.88  1.69
-0.02  9.86 -4.85  2.42
-0.29 10.11 -4.63  1.61
-0.13  9.70 -4.85  2.09
 0.18 10.10 -5.44  2.06
 0.06  9.74 -5.48  1.84
-0.49 10.42 -4.90  2.27
 0.39 10.43 -5.33  1.95
-0.01 10.30 -4.86  2.47
-0.34  9.79 -4.62  1.87
 0.40 10.25 -5.02  1.77
 0.45  9.62 -4.63  2.12
 0.22 10.42 -5.32  1.78
-0.33  9.70 -4.87  1.68
-0.37  9.73 -4.55  1.51
-0.34  9.62 -5.04  2.15
 0.42  9.60 -4.89  1.57
-0.11 10.00 -5.06  1.79
-0.26 10.41 -4.93  1.69
-0.47  9.93 -4.69  2.25
-0.14 10.50 -5.46  2.02
-0.30 10.16 -4.80  1.83
 0.39 10.15 -5.16  1.55
 0.27 10.30 -4.80  2.18
 0.40  9.81 -4.75  1.80
 0.31  9.69 -4.91  1.55
-0.40  9.66 -5.26  1.64
 0.09  9.56 -4.61  2.45
-0.44 10.43 -5.03  1.76
 0.09  9.67 -4.92  1.98
 0.32 10.43 -4.97  2.08
 0.23  9.73 -5.24  2.13
 0.04  9.52 -4.57  1.85
-0.29 10.02 -5.10  1.81
 0.18 10.15 -5.06  1.77
 0.20  9.83 -5.29  2.26
-0.24 10.18 -5.48  2.35
 0.35 10.10 -5.18  2.17
 0.03 10.35 -5.25  1.76
-0.43 10.01 -4.61  2.11
 0.03 10.32 -4.54  2.24
-0.16  9.86 -5.46  1.52
-0.49  9.99 -5.21  2.21
 0.32 10.01 -5.03  1.58
-0.31  9.98 -4.58  1.54
-0.42  9.74 -4.79  2.11
-0.41 10.46 -4.63  1.67
-0.02 10.26 -4.72  1.51
 0.08 10.24 -4.76  2.42
-0.40 10.29 -4.55  1.60
-0.23  9.74 -4.69  1.60
 0.25  9.78 -5.33  2.44
 0.26  9.60 -4.52  2.35
-0.16 10.19 -5.04  1.93
 0.15  9.82 -4.90  1.63
-0.42  9.88 -5.36  2.16
-0.39 10.38 -4.92  1.71
 0.17 10.03 -5.19  2.44
 0.27  9.62 -5.46  2.01
> Data Serie #006
-0.10  9.71 -5.05  1.66
-0.19  9.93 -5.49  2.15
-0.37  9.96 -5.42  2.28
 0.29 10.18 -4.59  2.37
-0.44  9.55 -4.97  1.68
 0.43  9.61 -5.11  2.10
 0.14 10.20 -4.96  1.91
 0.32 10.08 -4.58  1.72
 0.29  9.87 -5.12  1.60
 0.31  9.89 -4.75  2.43
 0.35 10.33 -4.79  2.14
 0.02 10.12 -5.00  2.08
 0.17  9.53 -4.74  2.10
-0.36  9.64 -5.30  2.28
 0.34 10.24 -5.32  2.17
-0.19  9.61 -4.61  1.60
-0.02  9.77 -5.30  1.79
 0.16 10.45 -5.28  2.01
 0.28 10.44 -5.36  1.79
 0.06 10.14 -4.63  1.73
 0.17 10.13 -4.67  2.31
 0.27  9.53 -4.91  2.12
 0.26 10.27 -5.22  1.58
 0.38  9.67 -5.32  1.86
-0.06  9.88 -4.85  1.60
-0.17 10.37 -4.89  1.60
 0.31 10.25 -5.10  1.87
-0.11  9.77 -4.90  1.57
 0.40  9.93 -4.62  2.17
-0.04  9.97 -5.21  1.72
-0.25 10.08 -5.20  1.63
 0.25  9.98 -5.01  1.69
 0.36  9.63 -5.21  1.68
-0.50 10.40 -5.21  2.31
 0.15 10.19 -5.32  1.54
 0.46 10.28 -5.39  2.36
-0.29 10.49 -4.96  2.17
-0.03 10.33 -4.61  2.21
-0.09  9.69 -4.66  1.65
 0.17  9.82 -5.15  2.03
-0.04 10.14 -4.78  1.96
 0.04  9.51 -5.23  1.69
 0.19  9.94 -5.26  2.15
-0.28  9.85 -4.99  1.93
-0.16  9.55 -5.41  2.31
 0.38 10.49 -4.98  1.78
-0.32  9.86 -5.06  2.35
 0.18 10.29 -5.11  1.64
-0.07  9.60 -4.90  2.47
-0.39 10.37 -5.34  2.30
-0.19  9.90 -5.04  2.03
 0.25 10.47 -4.54  1.59
-0.48  9.55 -4.60  2.40
-0.46  9.92 -5.32  1.72
 0.28 10.12 -5.43  1.96
-0.09  9.96 -4.90  2.34
 0.06  9.70 -4.70  2.17
-0.43 10.46 -5.02  1.88
-0.14 10.43 -4.58  1.60
 0.40 10.38 -5.31  2.42
 0.43  9.59 -4.68  2.47
 0.01  9.50 -5.31  1.79
 0.13  9.76 -4.75  1.54
 0.22  9.85 -4.63  1.79
 0.05 10.18 -4.54  2.12
 0.14  9.93 -5.49  2.50
-0.14 10.43 -5.40  1.76
 0.30  9.79 -5.31  2.23
-0.12  9.51 -4.80  2.39
-0.49 10.39 -5.32  2.14
> Data Serie #007
-0.35 10.43 -4.82  2.37
-0.22 10.05 -5.34  2.33
-0.28  9.61 -5.05  2.36
 0.05  9.96 -4.64  2.41
-0.11 10.46 -5.33  1.69
-0.25  9.86 -4.58  2.13
-0.13 10.12 -4.98  1.88
 0.00 10.19 -5.48  2.15
 0.12 10.19 -4.98  2.40
-0.26 10.18 -4.78  1.96
 0.29  9.68 -5.17  1.83
 0.14  9.68 -5.26  1.52
-0.36  9.92 -5.29  1.89
 0.28  9.63 -5.49  1.64
 0.25 10.03 -4.98  1.75
-0.28 10.04 -4.60  2.34
-0.26  9.92 -4.76  1.98
-0.41  9.96 -4.56  2.38
 0.14  9.77 -5.29  1.78
-0.05  9.96 -5.20  2.09
 0.38 10.01 -4.53  2.15
 0.14 10.48 -4.70  1.89
 0.02  9.82 -4.86  2.24
 0.36 10.03 -4.92  1.60
 0.45  9.82 -4.92  1.54
 0.29 10.02 -4.58  1.93
 0.28  9.64 -4.79  1.73
 0.10  9.51 -4.68  1.97
 0.02 10.29 -5.37  1.67
 0.28 10.43 -4.94  1.79
-0.25  9.69 -5.47  1.61
 0.23 10.12 -5.29  2.18
 0.44 10.29 -4.78  2.23
-0.19 10.15 -5.35  1.59
 0.28 10.36 -5.18  1.88
 0.37  9.64 -4.65  1.89
 0.43 10.48 -4.94  2.21
 0.41  9.61 -5.50  1.65
-0.19  9.53 -5.23  1.54
 0.15  9.98 -4.79  2.09
-0.23  9.93 -5.19  2.07
-0.42  9.97 -4.84  2.36
-0.17 10.49 -5.25  1.69
-0.37  9.60 -4.92  1.56
-0.42  9.64 -4.73  2.49
-0.24 10.27 -5.36  2.06
 0.30  9.91 -4.90  1.95
 0.39  9.81 -5.46  1.66
 0.25  9.85 -4.77  2.33
 0.32  9.89 -4.81  1.65
-0.12 10.44 -5.16  2.01
-0.46 10.43 -4.93  1.62
-0.43  9.84 -5.39  1.82
-0.39  9.76 -4.61  2.41
 0.17  9.99 -5.14  2.06
 0.30  9.89 -4.78  2.05
 0.24  9.95 -5.13  2.06
 0.34  9.57 -4.80  1.72
-0.49  9.54 -4.77  1.55
 0.47  9.80 -5.33  1.54
 0.13  9.78 -5.14  2.24
 0.04  9.75 -4.85  1.71
 0.24  9.50 -4.74  2.04
-0.11  9.98 -5.42  1.63
 0.43  9.96 -4.81  2.27
 0.03  9.90 -4.51  2.03
-0.06 10.22 -4.92  1.91
-0.49 10.25 -5.05  2.15
-0.47 10.31 -5.11  2.07
-0.44  9.53 -4.73  2.29
-0.46 10.04 -5.17  1.93
-0.48  9.91 -4.94  2.45
 0.37  9.75 -4.78  1.90
 0.15 10.21 -4.57  1.59
-0.08 10.01 -5.00  1.94
-0.24 10.44 -5.41  1.79
 0.25  9.97 -4.64  2.30
 0.01 10.14 -4.90  2.04
-0.33 10.43 -4.53  1.70
-0.16 10.04 -5.36  1.71
> Data Serie #008
 0.29 10.36 -4.89  1.94
 0.07 10.05 -4.97  2.49
-0.44  9.53 -5.07  1.82
 0.47 10.02 -4.89  2.22
 0.49  9.97 -4.97  2.00
-0.39  9.62 -5.45  1.78
-0.45  9.52 -5.02  1.89
 0.06 10.12 -4.90  1.85
-0.01  9.72 -4.71  1.55
 0.26  9.83 -5.45  2.32
-0.14  9.98 -5.36  1.83
 0.50 10.26 -5.45  2.49
-0.27 10.08 -5.01  1.84
 0.20 10.04 -4.88  2.25
 0.06  9.60 -5.36  1.62
 0.23 10.25 -5.03  1.71
 0.46  9.76 -5.23  2.23
 0.09  9.81 -4.95  2.45
 0.29 10.19 -5.22  2.29
-0.05  9.83 -4.71  2.18
 0.41  9.78 -5.48  2.11
 0.32 10.14 -5.14  1.88
 0.24 10.01 -5.00  1.97
-0.25 10.47 -4.82  1.72
-0.26 10.44 -4.56  2.33
-0.24  9.99 -4.73  1.55
-0.32  9.55 -4.65  2.13
-0.12 10.13 -5.20  1.78
 0.41  9.82 -4.61  2.23
 0.46  9.75 -5.39  2.20
 0.26 10.11 -5.33  1.51
 0.08 10.34 -5.27  2.32
 0.29  9.67 -4.86  1.55
 0.16  9.91 -5.40  2.34
-0.04 10.44 -5.04  2.34
 0.07 10.26 -5.38  1.98
-0.42  9.51 -5.29  1.54
-0.23  9.82 -4.76  1.53
 0.43 10.40 -5.46  2.01
 0.24  9.77 -5.17  2.03
-0.06 10.47 -4.92  1.59
-0.12 10.18 -4.57  2.34
 0.12  9.89 -4.82  1.70
-0.35 10.31 -4.82  1.73
 0.32 10.39 -5.23  1.59
-0.29  9.50 -5.38  1.65
 0.40  9.66 -4.84  2.15
-0.07 10.48 -5.32  2.36
 0.45 10.26 -4.55  1.83
-0.06 10.38 -5.32  1.56
-0.23 10.36 -5.24  1.92
 0.17 10.44 -4.85  1.99
 0.33 10.42 -4.92  1.54
 0.42 10.20 -5.31  2.32
 0.36 10.35 -5.03  1.79
 0.33 10.15 -5.35  2.28
-0.09  9.60 -5.38  2.35
 0.48  9.80 -4.59  1.75
-0.34  9.66 -4.83  2.33
-0.40  9.82 -5.18  2.43
-0.27 10.40 -4.52  1.65
 0.10  9.67 -4.52  1.96
-0.49  9.95 -4.76  2.35
-0.40 10.39 -4.87  2.01
 0.50 10.25 -5.14  2.48
-0.46  9.76 -5.27  1.70
-0.07 10.40 -5.47  2.03
-0.28  9.85 -5.04  1.96
-0.26  9.94 -4.89  2.34
 0.10 10.09 -5.20  2.12
-0.46  9.54 -5.04  1.63
 0.43  9.59 -4.86  2.43
 0.34 10.50 -4.59  2.39
-0.24  9.64 -5.41  2.19
-0.45  9.62 -5.28  1.77
-0.03 10.18 -4.77  2.21
-0.39  9.84 -4.95  2.22
 0.43 10.35 -5.17  2.46
 0.38 10.29 -5.40  2.32
 0.39 10.24 -4.76  2.23
 0.23 10.15 -4.89  2.49
 0.30 10.20 -4.82  2.35
 0.32 10.40 -5.38  1.79
 0.07 10.35 -5.50  2.19
-0.31 10.05 -5.10  1.61
-0.10 10.24 -5.42  1.79
 0.03  9.67 -5.40  1.92
 0.41 10.34 -5.36  2.14
-0.00 10.26 -4.87  1.79
-0.04  9.80 -5.36  1.79
> Data Serie #009
-0.30  9.76 -4.92  2.27
-0.40 10.08 -5.04  1.79
-0.37 10.36 -5.10  2.03
 0.10  9.97 -4.68  1.63
 0.15 10.42 -4.95  2.05
 0.26 10.19 -5.31  1.76
-0.05 10.32 -4.95  2.41
-0.38 10.19 -5.30  1.82
 0.44 10.27 -5.41  1.54
-0.15 10.05 -5.17  1.98
-0.08 10.23 -5.48  1.52
-0.30 10.34 -5.35  2.35
 0.26 10.19 -5.10  2.02
-0.12 10.09 -4.72  2.33
-0.09  9.83 -4.76  2.03
-0.48 10.44 -4.65  2.46
 0.21 10.44 -5.50  1.56
-0.00  9.83 -4.95  2.41
-0.44 10.07 -4.57  1.77
-0.09  9.58 -5.38  1.66
 0.27 10.02 -4.82  1.66
-0.39  9.96 -4.51  2.01
 0.28 10.23 -5.46  2.30
 0.17 10.39 -4.74  1.88
 0.33 10.26 -5.05  1.83
-0.41 10.50 -5.26  1.66
 0.07  9.67 -5.07  2.47
-0.25 10.04 -5.37  1.52
-0.44 10.31 -5.33  1.67
-0.23  9.66 -4.82  1.55
 0.39 10.23 -4.65  2.07
 0.11 10.11 -4.55  1.95
-0.13  9.90 -4.73  1.96
-0.10  9.51 -4.88  2.46
-0.32  9.55 -4.56  1.93
 0.09  9.57 -5.05  2.15
 0.38 10.12 -4.68  1.65
 0.28 10.01 -5.30  2.18
-0.27  9.55 -5.26  2.35
 0.16  9.70 -5.21  1.53
 0.10  9.56 -5.01  2.49
-0.43  9.61 -4.54  1.75
-0.34 10.39 -4.82  2.25
 0.46  9.63 -5.10  2.34
 0.25  9.72 -4.51  2.03
 0.23  9.69 -5.29  2.47
-0.26  9.95 -4.69  2.40
 0.15  9.61 -4.58  1.74
-0.33  9.91 -5.27  1.75
 0.02  9.69 -5.00  2.18
-0.41  9.68 -5.07  1.55
-0.19 10.33 -4.61  1.55
-0.45 10.38 -4.92  2.28
-0.43 10.29 -4.75  1.80
-0.26 10.06 -5.30  2.38
 0.17  9.62 -5.38  2.35
 0.03  9.86 -5.41  1.55
 0.05 10.09 -4.77  2.14
 0.28  9.65 -4.82  1.58
 0.48 10.07 -5.36  1.53
-0.05 10.22 -4.68  2.02
 0.00 10.07 -4.68  2.24
-0.37  9.52 -4.87  2.30
-0.36 10.25 -4.85  2.17
-0.39 10.24 -4.78  2.16
-0.16  9.94 -5.20  1.61
 0.09 10.48 -5.30  2.08
 0.06  9.83 -4.89  1.51
-0.45  9.92 -4.98  2.05
 0.49  9.84 -5.20  1.62
-0.14 10.42 -4.58  2.00
 0.17 10.07 -5.33  2.28
-0.18 10.38 -5.06  2.16
-0.17 10.24 -4.73  2.42
 0.23 10.47 -5.00  1.78
-0.20  9.60 -5.21  1.85
 0.03 10.31 -4.59  2.02
-0.35  9.70 -4.87  2.01
-0.37 10.06 -5.49  2.30
-0.37  9.68 -4.92  1.95
-0.44  9.53 -5.40  1.89
 0.27 10.37 -5.19  2.00
 0.34 10.30 -4.72  1.64
 0.41  9.57 -5.01  1.93
 0.38  9.90 -4.55  1.53
 0.10 10.08 -4.95  2.23
-0.36 10.06 -4.97  1.77
 0.24  9.61 -4.79  2.30
-0.36 10.32 -5.31  2.41
 0.19  9.99 -5.09  2.03
-0.20  9.69 -4.83  1.70
-0.24  9.66 -4.87  1.64
 0.06 10.08 -5.33  1.66
-0.34 10.22 -4.62  1.80
-0.22  9.91 -4.93  1.52
 0.02  9.78 -4.68  2.16
-0.40  9.50 -4.93  2.29
-0.00 10.48 -5.18  2.29
-0.34 10.49 -4.50  1.92
-0.35 10.13 -4.94  2.21
